Spotify Analysis
…
We used these parameters to create a HighLiveness subset from our main data:

HighLiveness <- SpotifyFeatures %>%
  filter(liveness>0.128)
HighLiveness

## # A tibble: 104,539 x 18
##    genre artist_name track_name track_id popularity acousticness danceability
##    <chr> <chr>       <chr>      <chr>         <dbl>        <dbl>        <dbl>
##  1 Movie Henri Salv C'est bea 0BRjO6g          0        0.611        0.389
##  2 Movie Martin & l Perdu d'a 0BjC1Nf          1        0.246        0.59 
##  3 Movie Fabien Nat Ouverture  0IuslXp          4        0.95         0.331
##  4 Movie Le Club de Les bisou 0VSqZ3K         10        0.319        0.598
##  5 Movie Leopold St Symphony  0XKgego          0        0.921        0.191
##  6 Movie Richard M. Keys of L 0pXwl2C          0        0.97         0.4  
##  7 Movie Michel Roux Les avent 0uWUjxM          0        0.548        0.588
##  8 Movie Jean Claud Diane      0vS7Zid          0        0.7          0.625
##  9 Movie Bernard Mi Ultra Man 0x8xSao          3        0.488        0.744
## 10 Movie Henri Salv Veunise    113pHPs          1        0.381        0.451
## #  with 104,529 more rows, and 11 more variables: duration_s <dbl>,
## #   energy <dbl>, instrumentalness <dbl>, key <chr>, liveness <dbl>,
## #   loudness <dbl>, mode <chr>, speechiness <dbl>, tempo <dbl>,
## #   time_signature <chr>, valence <dbl>
…
